p_theta(prior)= [  1.37234884e-045   3.53698095e-015   5.04968252e-004   9.21305232e-001
   7.81779022e-002   1.18977984e-005   2.27846746e-011   1.75647023e-018
   1.15399088e-026   1.07827972e-035   2.06466764e-045   1.06089062e-055
   1.79523385e-066   1.17305748e-077   3.35776722e-089   4.66094063e-101
   3.40958120e-113   1.40812685e-125   3.47811407e-138   5.39501566e-151
   5.47855434e-164   3.77495626e-177   1.82053771e-190   6.31354599e-204
   1.61225546e-217   3.09574709e-231   4.55322968e-245   5.21512682e-259
   4.72075562e-273   3.42226652e-287   2.01074227e-301   9.67891067e-316
   0.00000000e+000   0.00000000e+000   0.00000000e+000   0.00000000e+000
   0.00000000e+000   0.00000000e+000   0.00000000e+000   0.00000000e+000
   0.00000000e+000   0.00000000e+000   0.00000000e+000   0.00000000e+000
   0.00000000e+000   0.00000000e+000   0.00000000e+000   0.00000000e+000
   0.00000000e+000   0.00000000e+000   0.00000000e+000   0.00000000e+000
   0.00000000e+000   0.00000000e+000   0.00000000e+000   0.00000000e+000
   0.00000000e+000   0.00000000e+000   0.00000000e+000   0.00000000e+000
   0.00000000e+000   0.00000000e+000   0.00000000e+000   0.00000000e+000
   0.00000000e+000   0.00000000e+000   0.00000000e+000   0.00000000e+000
   0.00000000e+000   0.00000000e+000   0.00000000e+000   0.00000000e+000
   0.00000000e+000   0.00000000e+000   0.00000000e+000   0.00000000e+000
   0.00000000e+000   0.00000000e+000   0.00000000e+000   0.00000000e+000
   0.00000000e+000   0.00000000e+000   0.00000000e+000   0.00000000e+000
   0.00000000e+000   0.00000000e+000   0.00000000e+000   0.00000000e+000
   0.00000000e+000   0.00000000e+000   0.00000000e+000   0.00000000e+000
   0.00000000e+000   0.00000000e+000   0.00000000e+000   0.00000000e+000
   0.00000000e+000   0.00000000e+000   0.00000000e+000   0.00000000e+000
   0.00000000e+000   0.00000000e+000   0.00000000e+000   0.00000000e+000
   0.00000000e+000   0.00000000e+000   0.00000000e+000   0.00000000e+000
   0.00000000e+000   0.00000000e+000   0.00000000e+000   0.00000000e+000
   0.00000000e+000   0.00000000e+000   0.00000000e+000   0.00000000e+000
   0.00000000e+000   0.00000000e+000   0.00000000e+000   0.00000000e+000
   0.00000000e+000   0.00000000e+000   0.00000000e+000   0.00000000e+000
   0.00000000e+000   0.00000000e+000   0.00000000e+000   0.00000000e+000
   0.00000000e+000   0.00000000e+000   0.00000000e+000   0.00000000e+000
   0.00000000e+000   0.00000000e+000   0.00000000e+000   0.00000000e+000
   0.00000000e+000   0.00000000e+000   0.00000000e+000   0.00000000e+000
   0.00000000e+000   0.00000000e+000   0.00000000e+000   0.00000000e+000
   0.00000000e+000   0.00000000e+000   0.00000000e+000   0.00000000e+000
   0.00000000e+000   0.00000000e+000   0.00000000e+000   0.00000000e+000
   0.00000000e+000   0.00000000e+000   0.00000000e+000   0.00000000e+000
   0.00000000e+000   0.00000000e+000   0.00000000e+000   0.00000000e+000
   0.00000000e+000   0.00000000e+000   0.00000000e+000   0.00000000e+000
   0.00000000e+000   0.00000000e+000   0.00000000e+000   0.00000000e+000
   0.00000000e+000   0.00000000e+000   0.00000000e+000   0.00000000e+000
   0.00000000e+000   0.00000000e+000   0.00000000e+000   0.00000000e+000
   0.00000000e+000   0.00000000e+000   0.00000000e+000   0.00000000e+000
   0.00000000e+000   0.00000000e+000   0.00000000e+000   0.00000000e+000
   0.00000000e+000   0.00000000e+000   0.00000000e+000   0.00000000e+000
   0.00000000e+000   0.00000000e+000   0.00000000e+000   0.00000000e+000
   0.00000000e+000   0.00000000e+000   0.00000000e+000   0.00000000e+000
   0.00000000e+000   0.00000000e+000   0.00000000e+000   0.00000000e+000
   0.00000000e+000   0.00000000e+000   0.00000000e+000   0.00000000e+000
   0.00000000e+000   0.00000000e+000   0.00000000e+000   0.00000000e+000
   0.00000000e+000   0.00000000e+000   0.00000000e+000   0.00000000e+000
   0.00000000e+000   0.00000000e+000   0.00000000e+000   0.00000000e+000
   0.00000000e+000   0.00000000e+000   0.00000000e+000   0.00000000e+000
   0.00000000e+000   0.00000000e+000   0.00000000e+000   0.00000000e+000
   0.00000000e+000   0.00000000e+000   0.00000000e+000   0.00000000e+000
   0.00000000e+000   0.00000000e+000   0.00000000e+000   0.00000000e+000
   0.00000000e+000   0.00000000e+000   0.00000000e+000   0.00000000e+000
   0.00000000e+000   0.00000000e+000   0.00000000e+000   0.00000000e+000
   0.00000000e+000   0.00000000e+000   0.00000000e+000   0.00000000e+000
   0.00000000e+000   0.00000000e+000   0.00000000e+000   0.00000000e+000
   0.00000000e+000   0.00000000e+000   0.00000000e+000   0.00000000e+000
   0.00000000e+000   0.00000000e+000   0.00000000e+000   0.00000000e+000
   0.00000000e+000   0.00000000e+000   0.00000000e+000   0.00000000e+000
   0.00000000e+000   0.00000000e+000   0.00000000e+000   0.00000000e+000
   0.00000000e+000   0.00000000e+000   0.00000000e+000   0.00000000e+000
   0.00000000e+000   0.00000000e+000   0.00000000e+000   0.00000000e+000
   0.00000000e+000   0.00000000e+000   0.00000000e+000   0.00000000e+000
   0.00000000e+000   0.00000000e+000   0.00000000e+000   0.00000000e+000
   0.00000000e+000   0.00000000e+000   0.00000000e+000   0.00000000e+000
   0.00000000e+000   0.00000000e+000   0.00000000e+000   0.00000000e+000
   0.00000000e+000   0.00000000e+000   0.00000000e+000   0.00000000e+000
   0.00000000e+000   0.00000000e+000   0.00000000e+000   0.00000000e+000
   0.00000000e+000   0.00000000e+000   0.00000000e+000   0.00000000e+000
   0.00000000e+000   0.00000000e+000   0.00000000e+000   0.00000000e+000
   0.00000000e+000   0.00000000e+000   0.00000000e+000   0.00000000e+000
   0.00000000e+000   0.00000000e+000   0.00000000e+000   0.00000000e+000
   0.00000000e+000   0.00000000e+000   0.00000000e+000   0.00000000e+000
   0.00000000e+000   0.00000000e+000   0.00000000e+000   0.00000000e+000
   0.00000000e+000   0.00000000e+000   0.00000000e+000   0.00000000e+000
   0.00000000e+000   0.00000000e+000   0.00000000e+000   0.00000000e+000
   0.00000000e+000   0.00000000e+000   0.00000000e+000   0.00000000e+000
   0.00000000e+000   0.00000000e+000   0.00000000e+000   0.00000000e+000
   0.00000000e+000   0.00000000e+000   0.00000000e+000   0.00000000e+000
   0.00000000e+000   0.00000000e+000   0.00000000e+000   0.00000000e+000
   0.00000000e+000   0.00000000e+000   0.00000000e+000   0.00000000e+000
   0.00000000e+000   0.00000000e+000   0.00000000e+000   0.00000000e+000
   0.00000000e+000   0.00000000e+000   0.00000000e+000   0.00000000e+000
   0.00000000e+000   0.00000000e+000   0.00000000e+000   0.00000000e+000
   0.00000000e+000   0.00000000e+000   0.00000000e+000   0.00000000e+000
   0.00000000e+000   0.00000000e+000   0.00000000e+000   0.00000000e+000
   0.00000000e+000   0.00000000e+000   0.00000000e+000   0.00000000e+000
   0.00000000e+000   0.00000000e+000   0.00000000e+000   0.00000000e+000
   0.00000000e+000   0.00000000e+000   0.00000000e+000   0.00000000e+000
   0.00000000e+000   0.00000000e+000   0.00000000e+000   0.00000000e+000
   0.00000000e+000   0.00000000e+000   0.00000000e+000   0.00000000e+000
   0.00000000e+000   0.00000000e+000   0.00000000e+000   0.00000000e+000
   0.00000000e+000   0.00000000e+000   0.00000000e+000   0.00000000e+000
   0.00000000e+000   0.00000000e+000   0.00000000e+000   0.00000000e+000
   0.00000000e+000   0.00000000e+000   0.00000000e+000   0.00000000e+000
   0.00000000e+000   0.00000000e+000   0.00000000e+000   0.00000000e+000
   0.00000000e+000   0.00000000e+000   0.00000000e+000   0.00000000e+000
   0.00000000e+000   0.00000000e+000   0.00000000e+000   0.00000000e+000
   0.00000000e+000   0.00000000e+000   0.00000000e+000   0.00000000e+000
   0.00000000e+000   0.00000000e+000   0.00000000e+000   0.00000000e+000
   0.00000000e+000   0.00000000e+000   0.00000000e+000   0.00000000e+000
   0.00000000e+000   0.00000000e+000   0.00000000e+000   0.00000000e+000
   0.00000000e+000   0.00000000e+000   0.00000000e+000   0.00000000e+000
   0.00000000e+000   0.00000000e+000   0.00000000e+000   0.00000000e+000
   0.00000000e+000   0.00000000e+000   0.00000000e+000   0.00000000e+000
   0.00000000e+000   0.00000000e+000   0.00000000e+000   0.00000000e+000
   0.00000000e+000   0.00000000e+000   0.00000000e+000   0.00000000e+000
   0.00000000e+000   0.00000000e+000   0.00000000e+000   0.00000000e+000
   0.00000000e+000   0.00000000e+000   0.00000000e+000   0.00000000e+000
   0.00000000e+000   0.00000000e+000   0.00000000e+000   0.00000000e+000
   0.00000000e+000   0.00000000e+000   0.00000000e+000   0.00000000e+000
   0.00000000e+000   0.00000000e+000   0.00000000e+000   0.00000000e+000
   0.00000000e+000   0.00000000e+000   0.00000000e+000   0.00000000e+000
   0.00000000e+000   0.00000000e+000   0.00000000e+000   0.00000000e+000
   0.00000000e+000   0.00000000e+000   0.00000000e+000   0.00000000e+000
   0.00000000e+000   0.00000000e+000   0.00000000e+000   0.00000000e+000
   0.00000000e+000   0.00000000e+000   0.00000000e+000   0.00000000e+000
   0.00000000e+000   0.00000000e+000   0.00000000e+000   0.00000000e+000
   0.00000000e+000   0.00000000e+000   0.00000000e+000   0.00000000e+000
   0.00000000e+000   0.00000000e+000   0.00000000e+000   0.00000000e+000
   0.00000000e+000   0.00000000e+000   0.00000000e+000   0.00000000e+000
   0.00000000e+000   0.00000000e+000   0.00000000e+000   0.00000000e+000
   0.00000000e+000   0.00000000e+000   0.00000000e+000   0.00000000e+000
   0.00000000e+000   0.00000000e+000   0.00000000e+000   0.00000000e+000
   0.00000000e+000   0.00000000e+000   0.00000000e+000   0.00000000e+000
   0.00000000e+000   0.00000000e+000   0.00000000e+000   0.00000000e+000
   0.00000000e+000   0.00000000e+000   0.00000000e+000   0.00000000e+000
   0.00000000e+000   0.00000000e+000   0.00000000e+000   0.00000000e+000
   0.00000000e+000   0.00000000e+000   0.00000000e+000   0.00000000e+000
   0.00000000e+000   0.00000000e+000   0.00000000e+000   0.00000000e+000
   0.00000000e+000   0.00000000e+000   0.00000000e+000   0.00000000e+000
   0.00000000e+000   0.00000000e+000   0.00000000e+000   0.00000000e+000
   0.00000000e+000   0.00000000e+000   0.00000000e+000   0.00000000e+000
   0.00000000e+000   0.00000000e+000   0.00000000e+000   0.00000000e+000
   0.00000000e+000   0.00000000e+000   0.00000000e+000   0.00000000e+000
   0.00000000e+000   0.00000000e+000   0.00000000e+000   0.00000000e+000
   0.00000000e+000   0.00000000e+000   0.00000000e+000   0.00000000e+000
   0.00000000e+000   0.00000000e+000   0.00000000e+000   0.00000000e+000
   0.00000000e+000   0.00000000e+000   0.00000000e+000   0.00000000e+000
   0.00000000e+000   0.00000000e+000   0.00000000e+000   0.00000000e+000
   0.00000000e+000   0.00000000e+000   0.00000000e+000   0.00000000e+000
   0.00000000e+000   0.00000000e+000   0.00000000e+000   0.00000000e+000
   0.00000000e+000   0.00000000e+000   0.00000000e+000   0.00000000e+000
   0.00000000e+000   0.00000000e+000   0.00000000e+000   0.00000000e+000
   0.00000000e+000   0.00000000e+000   0.00000000e+000   0.00000000e+000
   0.00000000e+000   0.00000000e+000   0.00000000e+000   0.00000000e+000
   0.00000000e+000   0.00000000e+000   0.00000000e+000   0.00000000e+000
   0.00000000e+000   0.00000000e+000   0.00000000e+000   0.00000000e+000
   0.00000000e+000   0.00000000e+000   0.00000000e+000   0.00000000e+000
   0.00000000e+000   0.00000000e+000   0.00000000e+000   0.00000000e+000
   0.00000000e+000   0.00000000e+000   0.00000000e+000   0.00000000e+000
   0.00000000e+000   0.00000000e+000   0.00000000e+000   0.00000000e+000
   0.00000000e+000   0.00000000e+000   0.00000000e+000   0.00000000e+000
   0.00000000e+000   0.00000000e+000   0.00000000e+000   0.00000000e+000
   0.00000000e+000   0.00000000e+000   0.00000000e+000   0.00000000e+000
   0.00000000e+000   0.00000000e+000   0.00000000e+000   0.00000000e+000
   0.00000000e+000   0.00000000e+000   0.00000000e+000   0.00000000e+000
   0.00000000e+000   0.00000000e+000   0.00000000e+000   0.00000000e+000
   0.00000000e+000   0.00000000e+000   0.00000000e+000   0.00000000e+000
   0.00000000e+000   0.00000000e+000   0.00000000e+000   0.00000000e+000
   0.00000000e+000   0.00000000e+000   0.00000000e+000   0.00000000e+000
   0.00000000e+000   0.00000000e+000   0.00000000e+000   0.00000000e+000
   0.00000000e+000   0.00000000e+000   0.00000000e+000   0.00000000e+000
   0.00000000e+000   0.00000000e+000   0.00000000e+000   0.00000000e+000
   0.00000000e+000   0.00000000e+000   0.00000000e+000   0.00000000e+000
   0.00000000e+000   0.00000000e+000   0.00000000e+000   0.00000000e+000
   0.00000000e+000   0.00000000e+000   0.00000000e+000   0.00000000e+000
   0.00000000e+000   0.00000000e+000   0.00000000e+000   0.00000000e+000
   0.00000000e+000   0.00000000e+000   0.00000000e+000   0.00000000e+000
   0.00000000e+000   0.00000000e+000   0.00000000e+000   0.00000000e+000
   0.00000000e+000   0.00000000e+000   0.00000000e+000   0.00000000e+000
   0.00000000e+000   0.00000000e+000   0.00000000e+000   0.00000000e+000
   0.00000000e+000   0.00000000e+000   0.00000000e+000   0.00000000e+000
   0.00000000e+000   0.00000000e+000   0.00000000e+000   0.00000000e+000
   0.00000000e+000   0.00000000e+000   0.00000000e+000   0.00000000e+000
   0.00000000e+000   0.00000000e+000   0.00000000e+000   0.00000000e+000
   0.00000000e+000   0.00000000e+000   0.00000000e+000   0.00000000e+000
   0.00000000e+000   0.00000000e+000   0.00000000e+000   0.00000000e+000
   0.00000000e+000   0.00000000e+000   0.00000000e+000   0.00000000e+000
   0.00000000e+000   0.00000000e+000   0.00000000e+000   0.00000000e+000
   0.00000000e+000   0.00000000e+000   0.00000000e+000   0.00000000e+000
   0.00000000e+000   0.00000000e+000   0.00000000e+000   0.00000000e+000
   0.00000000e+000   0.00000000e+000   0.00000000e+000   0.00000000e+000
   0.00000000e+000   0.00000000e+000   0.00000000e+000   0.00000000e+000
   0.00000000e+000   0.00000000e+000   0.00000000e+000   0.00000000e+000
   0.00000000e+000   0.00000000e+000   0.00000000e+000   0.00000000e+000
   0.00000000e+000   0.00000000e+000   0.00000000e+000   0.00000000e+000
   0.00000000e+000   0.00000000e+000   0.00000000e+000   0.00000000e+000
   0.00000000e+000   0.00000000e+000   0.00000000e+000   0.00000000e+000
   0.00000000e+000   0.00000000e+000   0.00000000e+000   0.00000000e+000
   0.00000000e+000   0.00000000e+000   0.00000000e+000   0.00000000e+000
   0.00000000e+000   0.00000000e+000   0.00000000e+000   0.00000000e+000
   0.00000000e+000   0.00000000e+000   0.00000000e+000   0.00000000e+000
   0.00000000e+000   0.00000000e+000   0.00000000e+000   0.00000000e+000
   0.00000000e+000   0.00000000e+000   0.00000000e+000   0.00000000e+000
   0.00000000e+000   0.00000000e+000   0.00000000e+000   0.00000000e+000
   0.00000000e+000   0.00000000e+000   0.00000000e+000   0.00000000e+000
   0.00000000e+000   0.00000000e+000   0.00000000e+000   0.00000000e+000
   0.00000000e+000   0.00000000e+000   0.00000000e+000   0.00000000e+000
   0.00000000e+000   0.00000000e+000   0.00000000e+000   0.00000000e+000
   0.00000000e+000   0.00000000e+000   0.00000000e+000   0.00000000e+000
   0.00000000e+000   0.00000000e+000   0.00000000e+000   0.00000000e+000
   0.00000000e+000   0.00000000e+000   0.00000000e+000   0.00000000e+000
   0.00000000e+000   0.00000000e+000   0.00000000e+000   0.00000000e+000
   0.00000000e+000   0.00000000e+000   0.00000000e+000   0.00000000e+000
   0.00000000e+000   0.00000000e+000   0.00000000e+000   0.00000000e+000
   0.00000000e+000   0.00000000e+000   0.00000000e+000   0.00000000e+000
   0.00000000e+000   0.00000000e+000   0.00000000e+000   0.00000000e+000
   0.00000000e+000   0.00000000e+000   0.00000000e+000   0.00000000e+000
   0.00000000e+000   0.00000000e+000   0.00000000e+000   0.00000000e+000
   0.00000000e+000   0.00000000e+000   0.00000000e+000   0.00000000e+000
   0.00000000e+000   0.00000000e+000   0.00000000e+000   0.00000000e+000
   0.00000000e+000   0.00000000e+000   0.00000000e+000   0.00000000e+000
   0.00000000e+000   0.00000000e+000   0.00000000e+000   0.00000000e+000
   0.00000000e+000   0.00000000e+000   0.00000000e+000   0.00000000e+000
   0.00000000e+000   0.00000000e+000   0.00000000e+000   0.00000000e+000
   0.00000000e+000   0.00000000e+000   0.00000000e+000   0.00000000e+000
   0.00000000e+000   0.00000000e+000   0.00000000e+000   0.00000000e+000
   0.00000000e+000   0.00000000e+000   0.00000000e+000   0.00000000e+000
   0.00000000e+000   0.00000000e+000   0.00000000e+000   0.00000000e+000
   0.00000000e+000   0.00000000e+000   0.00000000e+000   0.00000000e+000
   0.00000000e+000   0.00000000e+000   0.00000000e+000   0.00000000e+000
   0.00000000e+000   0.00000000e+000   0.00000000e+000   0.00000000e+000
   0.00000000e+000   0.00000000e+000   0.00000000e+000   0.00000000e+000
   0.00000000e+000   0.00000000e+000   0.00000000e+000   0.00000000e+000
   0.00000000e+000   0.00000000e+000   0.00000000e+000   0.00000000e+000
   0.00000000e+000   0.00000000e+000   0.00000000e+000   0.00000000e+000
   0.00000000e+000   0.00000000e+000   0.00000000e+000   0.00000000e+000
   0.00000000e+000   0.00000000e+000   0.00000000e+000   0.00000000e+000
   0.00000000e+000   0.00000000e+000   0.00000000e+000   0.00000000e+000
   0.00000000e+000   0.00000000e+000   0.00000000e+000   0.00000000e+000
   0.00000000e+000   0.00000000e+000   0.00000000e+000   0.00000000e+000
   0.00000000e+000   0.00000000e+000   0.00000000e+000   0.00000000e+000
   0.00000000e+000   0.00000000e+000   0.00000000e+000   0.00000000e+000
   0.00000000e+000   0.00000000e+000   0.00000000e+000   0.00000000e+000
   0.00000000e+000   0.00000000e+000   0.00000000e+000   0.00000000e+000
   0.00000000e+000   0.00000000e+000   0.00000000e+000   0.00000000e+000
   0.00000000e+000   0.00000000e+000   0.00000000e+000   0.00000000e+000
   0.00000000e+000   0.00000000e+000   0.00000000e+000   0.00000000e+000
   0.00000000e+000   0.00000000e+000   0.00000000e+000   0.00000000e+000
   0.00000000e+000   0.00000000e+000   0.00000000e+000   0.00000000e+000
   0.00000000e+000   0.00000000e+000   0.00000000e+000   0.00000000e+000
   0.00000000e+000   0.00000000e+000   0.00000000e+000   0.00000000e+000
   0.00000000e+000   0.00000000e+000   0.00000000e+000   0.00000000e+000]
data= [0]
p_data_given_theta= [  9.99000999e-01   9.98001998e-01   9.97002997e-01   9.96003996e-01
   9.95004995e-01   9.94005994e-01   9.93006993e-01   9.92007992e-01
   9.91008991e-01   9.90009990e-01   9.89010989e-01   9.88011988e-01
   9.87012987e-01   9.86013986e-01   9.85014985e-01   9.84015984e-01
   9.83016983e-01   9.82017982e-01   9.81018981e-01   9.80019980e-01
   9.79020979e-01   9.78021978e-01   9.77022977e-01   9.76023976e-01
   9.75024975e-01   9.74025974e-01   9.73026973e-01   9.72027972e-01
   9.71028971e-01   9.70029970e-01   9.69030969e-01   9.68031968e-01
   9.67032967e-01   9.66033966e-01   9.65034965e-01   9.64035964e-01
   9.63036963e-01   9.62037962e-01   9.61038961e-01   9.60039960e-01
   9.59040959e-01   9.58041958e-01   9.57042957e-01   9.56043956e-01
   9.55044955e-01   9.54045954e-01   9.53046953e-01   9.52047952e-01
   9.51048951e-01   9.50049950e-01   9.49050949e-01   9.48051948e-01
   9.47052947e-01   9.46053946e-01   9.45054945e-01   9.44055944e-01
   9.43056943e-01   9.42057942e-01   9.41058941e-01   9.40059940e-01
   9.39060939e-01   9.38061938e-01   9.37062937e-01   9.36063936e-01
   9.35064935e-01   9.34065934e-01   9.33066933e-01   9.32067932e-01
   9.31068931e-01   9.30069930e-01   9.29070929e-01   9.28071928e-01
   9.27072927e-01   9.26073926e-01   9.25074925e-01   9.24075924e-01
   9.23076923e-01   9.22077922e-01   9.21078921e-01   9.20079920e-01
   9.19080919e-01   9.18081918e-01   9.17082917e-01   9.16083916e-01
   9.15084915e-01   9.14085914e-01   9.13086913e-01   9.12087912e-01
   9.11088911e-01   9.10089910e-01   9.09090909e-01   9.08091908e-01
   9.07092907e-01   9.06093906e-01   9.05094905e-01   9.04095904e-01
   9.03096903e-01   9.02097902e-01   9.01098901e-01   9.00099900e-01
   8.99100899e-01   8.98101898e-01   8.97102897e-01   8.96103896e-01
   8.95104895e-01   8.94105894e-01   8.93106893e-01   8.92107892e-01
   8.91108891e-01   8.90109890e-01   8.89110889e-01   8.88111888e-01
   8.87112887e-01   8.86113886e-01   8.85114885e-01   8.84115884e-01
   8.83116883e-01   8.82117882e-01   8.81118881e-01   8.80119880e-01
   8.79120879e-01   8.78121878e-01   8.77122877e-01   8.76123876e-01
   8.75124875e-01   8.74125874e-01   8.73126873e-01   8.72127872e-01
   8.71128871e-01   8.70129870e-01   8.69130869e-01   8.68131868e-01
   8.67132867e-01   8.66133866e-01   8.65134865e-01   8.64135864e-01
   8.63136863e-01   8.62137862e-01   8.61138861e-01   8.60139860e-01
   8.59140859e-01   8.58141858e-01   8.57142857e-01   8.56143856e-01
   8.55144855e-01   8.54145854e-01   8.53146853e-01   8.52147852e-01
   8.51148851e-01   8.50149850e-01   8.49150849e-01   8.48151848e-01
   8.47152847e-01   8.46153846e-01   8.45154845e-01   8.44155844e-01
   8.43156843e-01   8.42157842e-01   8.41158841e-01   8.40159840e-01
   8.39160839e-01   8.38161838e-01   8.37162837e-01   8.36163836e-01
   8.35164835e-01   8.34165834e-01   8.33166833e-01   8.32167832e-01
   8.31168831e-01   8.30169830e-01   8.29170829e-01   8.28171828e-01
   8.27172827e-01   8.26173826e-01   8.25174825e-01   8.24175824e-01
   8.23176823e-01   8.22177822e-01   8.21178821e-01   8.20179820e-01
   8.19180819e-01   8.18181818e-01   8.17182817e-01   8.16183816e-01
   8.15184815e-01   8.14185814e-01   8.13186813e-01   8.12187812e-01
   8.11188811e-01   8.10189810e-01   8.09190809e-01   8.08191808e-01
   8.07192807e-01   8.06193806e-01   8.05194805e-01   8.04195804e-01
   8.03196803e-01   8.02197802e-01   8.01198801e-01   8.00199800e-01
   7.99200799e-01   7.98201798e-01   7.97202797e-01   7.96203796e-01
   7.95204795e-01   7.94205794e-01   7.93206793e-01   7.92207792e-01
   7.91208791e-01   7.90209790e-01   7.89210789e-01   7.88211788e-01
   7.87212787e-01   7.86213786e-01   7.85214785e-01   7.84215784e-01
   7.83216783e-01   7.82217782e-01   7.81218781e-01   7.80219780e-01
   7.79220779e-01   7.78221778e-01   7.77222777e-01   7.76223776e-01
   7.75224775e-01   7.74225774e-01   7.73226773e-01   7.72227772e-01
   7.71228771e-01   7.70229770e-01   7.69230769e-01   7.68231768e-01
   7.67232767e-01   7.66233766e-01   7.65234765e-01   7.64235764e-01
   7.63236763e-01   7.62237762e-01   7.61238761e-01   7.60239760e-01
   7.59240759e-01   7.58241758e-01   7.57242757e-01   7.56243756e-01
   7.55244755e-01   7.54245754e-01   7.53246753e-01   7.52247752e-01
   7.51248751e-01   7.50249750e-01   7.49250749e-01   7.48251748e-01
   7.47252747e-01   7.46253746e-01   7.45254745e-01   7.44255744e-01
   7.43256743e-01   7.42257742e-01   7.41258741e-01   7.40259740e-01
   7.39260739e-01   7.38261738e-01   7.37262737e-01   7.36263736e-01
   7.35264735e-01   7.34265734e-01   7.33266733e-01   7.32267732e-01
   7.31268731e-01   7.30269730e-01   7.29270729e-01   7.28271728e-01
   7.27272727e-01   7.26273726e-01   7.25274725e-01   7.24275724e-01
   7.23276723e-01   7.22277722e-01   7.21278721e-01   7.20279720e-01
   7.19280719e-01   7.18281718e-01   7.17282717e-01   7.16283716e-01
   7.15284715e-01   7.14285714e-01   7.13286713e-01   7.12287712e-01
   7.11288711e-01   7.10289710e-01   7.09290709e-01   7.08291708e-01
   7.07292707e-01   7.06293706e-01   7.05294705e-01   7.04295704e-01
   7.03296703e-01   7.02297702e-01   7.01298701e-01   7.00299700e-01
   6.99300699e-01   6.98301698e-01   6.97302697e-01   6.96303696e-01
   6.95304695e-01   6.94305694e-01   6.93306693e-01   6.92307692e-01
   6.91308691e-01   6.90309690e-01   6.89310689e-01   6.88311688e-01
   6.87312687e-01   6.86313686e-01   6.85314685e-01   6.84315684e-01
   6.83316683e-01   6.82317682e-01   6.81318681e-01   6.80319680e-01
   6.79320679e-01   6.78321678e-01   6.77322677e-01   6.76323676e-01
   6.75324675e-01   6.74325674e-01   6.73326673e-01   6.72327672e-01
   6.71328671e-01   6.70329670e-01   6.69330669e-01   6.68331668e-01
   6.67332667e-01   6.66333666e-01   6.65334665e-01   6.64335664e-01
   6.63336663e-01   6.62337662e-01   6.61338661e-01   6.60339660e-01
   6.59340659e-01   6.58341658e-01   6.57342657e-01   6.56343656e-01
   6.55344655e-01   6.54345654e-01   6.53346653e-01   6.52347652e-01
   6.51348651e-01   6.50349650e-01   6.49350649e-01   6.48351648e-01
   6.47352647e-01   6.46353646e-01   6.45354645e-01   6.44355644e-01
   6.43356643e-01   6.42357642e-01   6.41358641e-01   6.40359640e-01
   6.39360639e-01   6.38361638e-01   6.37362637e-01   6.36363636e-01
   6.35364635e-01   6.34365634e-01   6.33366633e-01   6.32367632e-01
   6.31368631e-01   6.30369630e-01   6.29370629e-01   6.28371628e-01
   6.27372627e-01   6.26373626e-01   6.25374625e-01   6.24375624e-01
   6.23376623e-01   6.22377622e-01   6.21378621e-01   6.20379620e-01
   6.19380619e-01   6.18381618e-01   6.17382617e-01   6.16383616e-01
   6.15384615e-01   6.14385614e-01   6.13386613e-01   6.12387612e-01
   6.11388611e-01   6.10389610e-01   6.09390609e-01   6.08391608e-01
   6.07392607e-01   6.06393606e-01   6.05394605e-01   6.04395604e-01
   6.03396603e-01   6.02397602e-01   6.01398601e-01   6.00399600e-01
   5.99400599e-01   5.98401598e-01   5.97402597e-01   5.96403596e-01
   5.95404595e-01   5.94405594e-01   5.93406593e-01   5.92407592e-01
   5.91408591e-01   5.90409590e-01   5.89410589e-01   5.88411588e-01
   5.87412587e-01   5.86413586e-01   5.85414585e-01   5.84415584e-01
   5.83416583e-01   5.82417582e-01   5.81418581e-01   5.80419580e-01
   5.79420579e-01   5.78421578e-01   5.77422577e-01   5.76423576e-01
   5.75424575e-01   5.74425574e-01   5.73426573e-01   5.72427572e-01
   5.71428571e-01   5.70429570e-01   5.69430569e-01   5.68431568e-01
   5.67432567e-01   5.66433566e-01   5.65434565e-01   5.64435564e-01
   5.63436563e-01   5.62437562e-01   5.61438561e-01   5.60439560e-01
   5.59440559e-01   5.58441558e-01   5.57442557e-01   5.56443556e-01
   5.55444555e-01   5.54445554e-01   5.53446553e-01   5.52447552e-01
   5.51448551e-01   5.50449550e-01   5.49450549e-01   5.48451548e-01
   5.47452547e-01   5.46453546e-01   5.45454545e-01   5.44455544e-01
   5.43456543e-01   5.42457542e-01   5.41458541e-01   5.40459540e-01
   5.39460539e-01   5.38461538e-01   5.37462537e-01   5.36463536e-01
   5.35464535e-01   5.34465534e-01   5.33466533e-01   5.32467532e-01
   5.31468531e-01   5.30469530e-01   5.29470529e-01   5.28471528e-01
   5.27472527e-01   5.26473526e-01   5.25474525e-01   5.24475524e-01
   5.23476523e-01   5.22477522e-01   5.21478521e-01   5.20479520e-01
   5.19480519e-01   5.18481518e-01   5.17482517e-01   5.16483516e-01
   5.15484515e-01   5.14485514e-01   5.13486513e-01   5.12487512e-01
   5.11488511e-01   5.10489510e-01   5.09490509e-01   5.08491508e-01
   5.07492507e-01   5.06493506e-01   5.05494505e-01   5.04495504e-01
   5.03496503e-01   5.02497502e-01   5.01498501e-01   5.00499500e-01
   4.99500500e-01   4.98501499e-01   4.97502498e-01   4.96503497e-01
   4.95504496e-01   4.94505495e-01   4.93506494e-01   4.92507493e-01
   4.91508492e-01   4.90509491e-01   4.89510490e-01   4.88511489e-01
   4.87512488e-01   4.86513487e-01   4.85514486e-01   4.84515485e-01
   4.83516484e-01   4.82517483e-01   4.81518482e-01   4.80519481e-01
   4.79520480e-01   4.78521479e-01   4.77522478e-01   4.76523477e-01
   4.75524476e-01   4.74525475e-01   4.73526474e-01   4.72527473e-01
   4.71528472e-01   4.70529471e-01   4.69530470e-01   4.68531469e-01
   4.67532468e-01   4.66533467e-01   4.65534466e-01   4.64535465e-01
   4.63536464e-01   4.62537463e-01   4.61538462e-01   4.60539461e-01
   4.59540460e-01   4.58541459e-01   4.57542458e-01   4.56543457e-01
   4.55544456e-01   4.54545455e-01   4.53546454e-01   4.52547453e-01
   4.51548452e-01   4.50549451e-01   4.49550450e-01   4.48551449e-01
   4.47552448e-01   4.46553447e-01   4.45554446e-01   4.44555445e-01
   4.43556444e-01   4.42557443e-01   4.41558442e-01   4.40559441e-01
   4.39560440e-01   4.38561439e-01   4.37562438e-01   4.36563437e-01
   4.35564436e-01   4.34565435e-01   4.33566434e-01   4.32567433e-01
   4.31568432e-01   4.30569431e-01   4.29570430e-01   4.28571429e-01
   4.27572428e-01   4.26573427e-01   4.25574426e-01   4.24575425e-01
   4.23576424e-01   4.22577423e-01   4.21578422e-01   4.20579421e-01
   4.19580420e-01   4.18581419e-01   4.17582418e-01   4.16583417e-01
   4.15584416e-01   4.14585415e-01   4.13586414e-01   4.12587413e-01
   4.11588412e-01   4.10589411e-01   4.09590410e-01   4.08591409e-01
   4.07592408e-01   4.06593407e-01   4.05594406e-01   4.04595405e-01
   4.03596404e-01   4.02597403e-01   4.01598402e-01   4.00599401e-01
   3.99600400e-01   3.98601399e-01   3.97602398e-01   3.96603397e-01
   3.95604396e-01   3.94605395e-01   3.93606394e-01   3.92607393e-01
   3.91608392e-01   3.90609391e-01   3.89610390e-01   3.88611389e-01
   3.87612388e-01   3.86613387e-01   3.85614386e-01   3.84615385e-01
   3.83616384e-01   3.82617383e-01   3.81618382e-01   3.80619381e-01
   3.79620380e-01   3.78621379e-01   3.77622378e-01   3.76623377e-01
   3.75624376e-01   3.74625375e-01   3.73626374e-01   3.72627373e-01
   3.71628372e-01   3.70629371e-01   3.69630370e-01   3.68631369e-01
   3.67632368e-01   3.66633367e-01   3.65634366e-01   3.64635365e-01
   3.63636364e-01   3.62637363e-01   3.61638362e-01   3.60639361e-01
   3.59640360e-01   3.58641359e-01   3.57642358e-01   3.56643357e-01
   3.55644356e-01   3.54645355e-01   3.53646354e-01   3.52647353e-01
   3.51648352e-01   3.50649351e-01   3.49650350e-01   3.48651349e-01
   3.47652348e-01   3.46653347e-01   3.45654346e-01   3.44655345e-01
   3.43656344e-01   3.42657343e-01   3.41658342e-01   3.40659341e-01
   3.39660340e-01   3.38661339e-01   3.37662338e-01   3.36663337e-01
   3.35664336e-01   3.34665335e-01   3.33666334e-01   3.32667333e-01
   3.31668332e-01   3.30669331e-01   3.29670330e-01   3.28671329e-01
   3.27672328e-01   3.26673327e-01   3.25674326e-01   3.24675325e-01
   3.23676324e-01   3.22677323e-01   3.21678322e-01   3.20679321e-01
   3.19680320e-01   3.18681319e-01   3.17682318e-01   3.16683317e-01
   3.15684316e-01   3.14685315e-01   3.13686314e-01   3.12687313e-01
   3.11688312e-01   3.10689311e-01   3.09690310e-01   3.08691309e-01
   3.07692308e-01   3.06693307e-01   3.05694306e-01   3.04695305e-01
   3.03696304e-01   3.02697303e-01   3.01698302e-01   3.00699301e-01
   2.99700300e-01   2.98701299e-01   2.97702298e-01   2.96703297e-01
   2.95704296e-01   2.94705295e-01   2.93706294e-01   2.92707293e-01
   2.91708292e-01   2.90709291e-01   2.89710290e-01   2.88711289e-01
   2.87712288e-01   2.86713287e-01   2.85714286e-01   2.84715285e-01
   2.83716284e-01   2.82717283e-01   2.81718282e-01   2.80719281e-01
   2.79720280e-01   2.78721279e-01   2.77722278e-01   2.76723277e-01
   2.75724276e-01   2.74725275e-01   2.73726274e-01   2.72727273e-01
   2.71728272e-01   2.70729271e-01   2.69730270e-01   2.68731269e-01
   2.67732268e-01   2.66733267e-01   2.65734266e-01   2.64735265e-01
   2.63736264e-01   2.62737263e-01   2.61738262e-01   2.60739261e-01
   2.59740260e-01   2.58741259e-01   2.57742258e-01   2.56743257e-01
   2.55744256e-01   2.54745255e-01   2.53746254e-01   2.52747253e-01
   2.51748252e-01   2.50749251e-01   2.49750250e-01   2.48751249e-01
   2.47752248e-01   2.46753247e-01   2.45754246e-01   2.44755245e-01
   2.43756244e-01   2.42757243e-01   2.41758242e-01   2.40759241e-01
   2.39760240e-01   2.38761239e-01   2.37762238e-01   2.36763237e-01
   2.35764236e-01   2.34765235e-01   2.33766234e-01   2.32767233e-01
   2.31768232e-01   2.30769231e-01   2.29770230e-01   2.28771229e-01
   2.27772228e-01   2.26773227e-01   2.25774226e-01   2.24775225e-01
   2.23776224e-01   2.22777223e-01   2.21778222e-01   2.20779221e-01
   2.19780220e-01   2.18781219e-01   2.17782218e-01   2.16783217e-01
   2.15784216e-01   2.14785215e-01   2.13786214e-01   2.12787213e-01
   2.11788212e-01   2.10789211e-01   2.09790210e-01   2.08791209e-01
   2.07792208e-01   2.06793207e-01   2.05794206e-01   2.04795205e-01
   2.03796204e-01   2.02797203e-01   2.01798202e-01   2.00799201e-01
   1.99800200e-01   1.98801199e-01   1.97802198e-01   1.96803197e-01
   1.95804196e-01   1.94805195e-01   1.93806194e-01   1.92807193e-01
   1.91808192e-01   1.90809191e-01   1.89810190e-01   1.88811189e-01
   1.87812188e-01   1.86813187e-01   1.85814186e-01   1.84815185e-01
   1.83816184e-01   1.82817183e-01   1.81818182e-01   1.80819181e-01
   1.79820180e-01   1.78821179e-01   1.77822178e-01   1.76823177e-01
   1.75824176e-01   1.74825175e-01   1.73826174e-01   1.72827173e-01
   1.71828172e-01   1.70829171e-01   1.69830170e-01   1.68831169e-01
   1.67832168e-01   1.66833167e-01   1.65834166e-01   1.64835165e-01
   1.63836164e-01   1.62837163e-01   1.61838162e-01   1.60839161e-01
   1.59840160e-01   1.58841159e-01   1.57842158e-01   1.56843157e-01
   1.55844156e-01   1.54845155e-01   1.53846154e-01   1.52847153e-01
   1.51848152e-01   1.50849151e-01   1.49850150e-01   1.48851149e-01
   1.47852148e-01   1.46853147e-01   1.45854146e-01   1.44855145e-01
   1.43856144e-01   1.42857143e-01   1.41858142e-01   1.40859141e-01
   1.39860140e-01   1.38861139e-01   1.37862138e-01   1.36863137e-01
   1.35864136e-01   1.34865135e-01   1.33866134e-01   1.32867133e-01
   1.31868132e-01   1.30869131e-01   1.29870130e-01   1.28871129e-01
   1.27872128e-01   1.26873127e-01   1.25874126e-01   1.24875125e-01
   1.23876124e-01   1.22877123e-01   1.21878122e-01   1.20879121e-01
   1.19880120e-01   1.18881119e-01   1.17882118e-01   1.16883117e-01
   1.15884116e-01   1.14885115e-01   1.13886114e-01   1.12887113e-01
   1.11888112e-01   1.10889111e-01   1.09890110e-01   1.08891109e-01
   1.07892108e-01   1.06893107e-01   1.05894106e-01   1.04895105e-01
   1.03896104e-01   1.02897103e-01   1.01898102e-01   1.00899101e-01
   9.99000999e-02   9.89010989e-02   9.79020979e-02   9.69030969e-02
   9.59040959e-02   9.49050949e-02   9.39060939e-02   9.29070929e-02
   9.19080919e-02   9.09090909e-02   8.99100899e-02   8.89110889e-02
   8.79120879e-02   8.69130869e-02   8.59140859e-02   8.49150849e-02
   8.39160839e-02   8.29170829e-02   8.19180819e-02   8.09190809e-02
   7.99200799e-02   7.89210789e-02   7.79220779e-02   7.69230769e-02
   7.59240759e-02   7.49250749e-02   7.39260739e-02   7.29270729e-02
   7.19280719e-02   7.09290709e-02   6.99300699e-02   6.89310689e-02
   6.79320679e-02   6.69330669e-02   6.59340659e-02   6.49350649e-02
   6.39360639e-02   6.29370629e-02   6.19380619e-02   6.09390609e-02
   5.99400599e-02   5.89410589e-02   5.79420579e-02   5.69430569e-02
   5.59440559e-02   5.49450549e-02   5.39460539e-02   5.29470529e-02
   5.19480519e-02   5.09490509e-02   4.99500500e-02   4.89510490e-02
   4.79520480e-02   4.69530470e-02   4.59540460e-02   4.49550450e-02
   4.39560440e-02   4.29570430e-02   4.19580420e-02   4.09590410e-02
   3.99600400e-02   3.89610390e-02   3.79620380e-02   3.69630370e-02
   3.59640360e-02   3.49650350e-02   3.39660340e-02   3.29670330e-02
   3.19680320e-02   3.09690310e-02   2.99700300e-02   2.89710290e-02
   2.79720280e-02   2.69730270e-02   2.59740260e-02   2.49750250e-02
   2.39760240e-02   2.29770230e-02   2.19780220e-02   2.09790210e-02
   1.99800200e-02   1.89810190e-02   1.79820180e-02   1.69830170e-02
   1.59840160e-02   1.49850150e-02   1.39860140e-02   1.29870130e-02
   1.19880120e-02   1.09890110e-02   9.99000999e-03   8.99100899e-03
   7.99200799e-03   6.99300699e-03   5.99400599e-03   4.99500500e-03
   3.99600400e-03   2.99700300e-03   1.99800200e-03   9.99000999e-04]
p_theta_given_data= [  1.37658555e-045   3.54435241e-015   5.05514135e-004   9.21377035e-001
   7.81055759e-002   1.18748567e-005   2.27178853e-011   1.74955955e-018
   1.14829305e-026   1.07187411e-035   2.05033127e-045   1.05245998e-055
   1.77916678e-066   1.16138212e-077   3.32097945e-089   4.60519993e-101
   3.36538554e-113   1.38846196e-125   3.42605237e-138   5.30884939e-151
   5.38555837e-164   3.70709148e-177   1.78598260e-190   6.18737730e-204
   1.57841923e-217   3.02767167e-231   4.44853695e-245   5.08998383e-259
   4.60274030e-273   3.33327962e-287   1.95644134e-301   9.40781888e-316
   0.00000000e+000   0.00000000e+000   0.00000000e+000   0.00000000e+000
   0.00000000e+000   0.00000000e+000   0.00000000e+000   0.00000000e+000
   0.00000000e+000   0.00000000e+000   0.00000000e+000   0.00000000e+000
   0.00000000e+000   0.00000000e+000   0.00000000e+000   0.00000000e+000
   0.00000000e+000   0.00000000e+000   0.00000000e+000   0.00000000e+000
   0.00000000e+000   0.00000000e+000   0.00000000e+000   0.00000000e+000
   0.00000000e+000   0.00000000e+000   0.00000000e+000   0.00000000e+000
   0.00000000e+000   0.00000000e+000   0.00000000e+000   0.00000000e+000
   0.00000000e+000   0.00000000e+000   0.00000000e+000   0.00000000e+000
   0.00000000e+000   0.00000000e+000   0.00000000e+000   0.00000000e+000
   0.00000000e+000   0.00000000e+000   0.00000000e+000   0.00000000e+000
   0.00000000e+000   0.00000000e+000   0.00000000e+000   0.00000000e+000
   0.00000000e+000   0.00000000e+000   0.00000000e+000   0.00000000e+000
   0.00000000e+000   0.00000000e+000   0.00000000e+000   0.00000000e+000
   0.00000000e+000   0.00000000e+000   0.00000000e+000   0.00000000e+000
   0.00000000e+000   0.00000000e+000   0.00000000e+000   0.00000000e+000
   0.00000000e+000   0.00000000e+000   0.00000000e+000   0.00000000e+000
   0.00000000e+000   0.00000000e+000   0.00000000e+000   0.00000000e+000
   0.00000000e+000   0.00000000e+000   0.00000000e+000   0.00000000e+000
   0.00000000e+000   0.00000000e+000   0.00000000e+000   0.00000000e+000
   0.00000000e+000   0.00000000e+000   0.00000000e+000   0.00000000e+000
   0.00000000e+000   0.00000000e+000   0.00000000e+000   0.00000000e+000
   0.00000000e+000   0.00000000e+000   0.00000000e+000   0.00000000e+000
   0.00000000e+000   0.00000000e+000   0.00000000e+000   0.00000000e+000
   0.00000000e+000   0.00000000e+000   0.00000000e+000   0.00000000e+000
   0.00000000e+000   0.00000000e+000   0.00000000e+000   0.00000000e+000
   0.00000000e+000   0.00000000e+000   0.00000000e+000   0.00000000e+000
   0.00000000e+000   0.00000000e+000   0.00000000e+000   0.00000000e+000
   0.00000000e+000   0.00000000e+000   0.00000000e+000   0.00000000e+000
   0.00000000e+000   0.00000000e+000   0.00000000e+000   0.00000000e+000
   0.00000000e+000   0.00000000e+000   0.00000000e+000   0.00000000e+000
   0.00000000e+000   0.00000000e+000   0.00000000e+000   0.00000000e+000
   0.00000000e+000   0.00000000e+000   0.00000000e+000   0.00000000e+000
   0.00000000e+000   0.00000000e+000   0.00000000e+000   0.00000000e+000
   0.00000000e+000   0.00000000e+000   0.00000000e+000   0.00000000e+000
   0.00000000e+000   0.00000000e+000   0.00000000e+000   0.00000000e+000
   0.00000000e+000   0.00000000e+000   0.00000000e+000   0.00000000e+000
   0.00000000e+000   0.00000000e+000   0.00000000e+000   0.00000000e+000
   0.00000000e+000   0.00000000e+000   0.00000000e+000   0.00000000e+000
   0.00000000e+000   0.00000000e+000   0.00000000e+000   0.00000000e+000
   0.00000000e+000   0.00000000e+000   0.00000000e+000   0.00000000e+000
   0.00000000e+000   0.00000000e+000   0.00000000e+000   0.00000000e+000
   0.00000000e+000   0.00000000e+000   0.00000000e+000   0.00000000e+000
   0.00000000e+000   0.00000000e+000   0.00000000e+000   0.00000000e+000
   0.00000000e+000   0.00000000e+000   0.00000000e+000   0.00000000e+000
   0.00000000e+000   0.00000000e+000   0.00000000e+000   0.00000000e+000
   0.00000000e+000   0.00000000e+000   0.00000000e+000   0.00000000e+000
   0.00000000e+000   0.00000000e+000   0.00000000e+000   0.00000000e+000
   0.00000000e+000   0.00000000e+000   0.00000000e+000   0.00000000e+000
   0.00000000e+000   0.00000000e+000   0.00000000e+000   0.00000000e+000
   0.00000000e+000   0.00000000e+000   0.00000000e+000   0.00000000e+000
   0.00000000e+000   0.00000000e+000   0.00000000e+000   0.00000000e+000
   0.00000000e+000   0.00000000e+000   0.00000000e+000   0.00000000e+000
   0.00000000e+000   0.00000000e+000   0.00000000e+000   0.00000000e+000
   0.00000000e+000   0.00000000e+000   0.00000000e+000   0.00000000e+000
   0.00000000e+000   0.00000000e+000   0.00000000e+000   0.00000000e+000
   0.00000000e+000   0.00000000e+000   0.00000000e+000   0.00000000e+000
   0.00000000e+000   0.00000000e+000   0.00000000e+000   0.00000000e+000
   0.00000000e+000   0.00000000e+000   0.00000000e+000   0.00000000e+000
   0.00000000e+000   0.00000000e+000   0.00000000e+000   0.00000000e+000
   0.00000000e+000   0.00000000e+000   0.00000000e+000   0.00000000e+000
   0.00000000e+000   0.00000000e+000   0.00000000e+000   0.00000000e+000
   0.00000000e+000   0.00000000e+000   0.00000000e+000   0.00000000e+000
   0.00000000e+000   0.00000000e+000   0.00000000e+000   0.00000000e+000
   0.00000000e+000   0.00000000e+000   0.00000000e+000   0.00000000e+000
   0.00000000e+000   0.00000000e+000   0.00000000e+000   0.00000000e+000
   0.00000000e+000   0.00000000e+000   0.00000000e+000   0.00000000e+000
   0.00000000e+000   0.00000000e+000   0.00000000e+000   0.00000000e+000
   0.00000000e+000   0.00000000e+000   0.00000000e+000   0.00000000e+000
   0.00000000e+000   0.00000000e+000   0.00000000e+000   0.00000000e+000
   0.00000000e+000   0.00000000e+000   0.00000000e+000   0.00000000e+000
   0.00000000e+000   0.00000000e+000   0.00000000e+000   0.00000000e+000
   0.00000000e+000   0.00000000e+000   0.00000000e+000   0.00000000e+000
   0.00000000e+000   0.00000000e+000   0.00000000e+000   0.00000000e+000
   0.00000000e+000   0.00000000e+000   0.00000000e+000   0.00000000e+000
   0.00000000e+000   0.00000000e+000   0.00000000e+000   0.00000000e+000
   0.00000000e+000   0.00000000e+000   0.00000000e+000   0.00000000e+000
   0.00000000e+000   0.00000000e+000   0.00000000e+000   0.00000000e+000
   0.00000000e+000   0.00000000e+000   0.00000000e+000   0.00000000e+000
   0.00000000e+000   0.00000000e+000   0.00000000e+000   0.00000000e+000
   0.00000000e+000   0.00000000e+000   0.00000000e+000   0.00000000e+000
   0.00000000e+000   0.00000000e+000   0.00000000e+000   0.00000000e+000
   0.00000000e+000   0.00000000e+000   0.00000000e+000   0.00000000e+000
   0.00000000e+000   0.00000000e+000   0.00000000e+000   0.00000000e+000
   0.00000000e+000   0.00000000e+000   0.00000000e+000   0.00000000e+000
   0.00000000e+000   0.00000000e+000   0.00000000e+000   0.00000000e+000
   0.00000000e+000   0.00000000e+000   0.00000000e+000   0.00000000e+000
   0.00000000e+000   0.00000000e+000   0.00000000e+000   0.00000000e+000
   0.00000000e+000   0.00000000e+000   0.00000000e+000   0.00000000e+000
   0.00000000e+000   0.00000000e+000   0.00000000e+000   0.00000000e+000
   0.00000000e+000   0.00000000e+000   0.00000000e+000   0.00000000e+000
   0.00000000e+000   0.00000000e+000   0.00000000e+000   0.00000000e+000
   0.00000000e+000   0.00000000e+000   0.00000000e+000   0.00000000e+000
   0.00000000e+000   0.00000000e+000   0.00000000e+000   0.00000000e+000
   0.00000000e+000   0.00000000e+000   0.00000000e+000   0.00000000e+000
   0.00000000e+000   0.00000000e+000   0.00000000e+000   0.00000000e+000
   0.00000000e+000   0.00000000e+000   0.00000000e+000   0.00000000e+000
   0.00000000e+000   0.00000000e+000   0.00000000e+000   0.00000000e+000
   0.00000000e+000   0.00000000e+000   0.00000000e+000   0.00000000e+000
   0.00000000e+000   0.00000000e+000   0.00000000e+000   0.00000000e+000
   0.00000000e+000   0.00000000e+000   0.00000000e+000   0.00000000e+000
   0.00000000e+000   0.00000000e+000   0.00000000e+000   0.00000000e+000
   0.00000000e+000   0.00000000e+000   0.00000000e+000   0.00000000e+000
   0.00000000e+000   0.00000000e+000   0.00000000e+000   0.00000000e+000
   0.00000000e+000   0.00000000e+000   0.00000000e+000   0.00000000e+000
   0.00000000e+000   0.00000000e+000   0.00000000e+000   0.00000000e+000
   0.00000000e+000   0.00000000e+000   0.00000000e+000   0.00000000e+000
   0.00000000e+000   0.00000000e+000   0.00000000e+000   0.00000000e+000
   0.00000000e+000   0.00000000e+000   0.00000000e+000   0.00000000e+000
   0.00000000e+000   0.00000000e+000   0.00000000e+000   0.00000000e+000
   0.00000000e+000   0.00000000e+000   0.00000000e+000   0.00000000e+000
   0.00000000e+000   0.00000000e+000   0.00000000e+000   0.00000000e+000
   0.00000000e+000   0.00000000e+000   0.00000000e+000   0.00000000e+000
   0.00000000e+000   0.00000000e+000   0.00000000e+000   0.00000000e+000
   0.00000000e+000   0.00000000e+000   0.00000000e+000   0.00000000e+000
   0.00000000e+000   0.00000000e+000   0.00000000e+000   0.00000000e+000
   0.00000000e+000   0.00000000e+000   0.00000000e+000   0.00000000e+000
   0.00000000e+000   0.00000000e+000   0.00000000e+000   0.00000000e+000
   0.00000000e+000   0.00000000e+000   0.00000000e+000   0.00000000e+000
   0.00000000e+000   0.00000000e+000   0.00000000e+000   0.00000000e+000
   0.00000000e+000   0.00000000e+000   0.00000000e+000   0.00000000e+000
   0.00000000e+000   0.00000000e+000   0.00000000e+000   0.00000000e+000
   0.00000000e+000   0.00000000e+000   0.00000000e+000   0.00000000e+000
   0.00000000e+000   0.00000000e+000   0.00000000e+000   0.00000000e+000
   0.00000000e+000   0.00000000e+000   0.00000000e+000   0.00000000e+000
   0.00000000e+000   0.00000000e+000   0.00000000e+000   0.00000000e+000
   0.00000000e+000   0.00000000e+000   0.00000000e+000   0.00000000e+000
   0.00000000e+000   0.00000000e+000   0.00000000e+000   0.00000000e+000
   0.00000000e+000   0.00000000e+000   0.00000000e+000   0.00000000e+000
   0.00000000e+000   0.00000000e+000   0.00000000e+000   0.00000000e+000
   0.00000000e+000   0.00000000e+000   0.00000000e+000   0.00000000e+000
   0.00000000e+000   0.00000000e+000   0.00000000e+000   0.00000000e+000
   0.00000000e+000   0.00000000e+000   0.00000000e+000   0.00000000e+000
   0.00000000e+000   0.00000000e+000   0.00000000e+000   0.00000000e+000
   0.00000000e+000   0.00000000e+000   0.00000000e+000   0.00000000e+000
   0.00000000e+000   0.00000000e+000   0.00000000e+000   0.00000000e+000
   0.00000000e+000   0.00000000e+000   0.00000000e+000   0.00000000e+000
   0.00000000e+000   0.00000000e+000   0.00000000e+000   0.00000000e+000
   0.00000000e+000   0.00000000e+000   0.00000000e+000   0.00000000e+000
   0.00000000e+000   0.00000000e+000   0.00000000e+000   0.00000000e+000
   0.00000000e+000   0.00000000e+000   0.00000000e+000   0.00000000e+000
   0.00000000e+000   0.00000000e+000   0.00000000e+000   0.00000000e+000
   0.00000000e+000   0.00000000e+000   0.00000000e+000   0.00000000e+000
   0.00000000e+000   0.00000000e+000   0.00000000e+000   0.00000000e+000
   0.00000000e+000   0.00000000e+000   0.00000000e+000   0.00000000e+000
   0.00000000e+000   0.00000000e+000   0.00000000e+000   0.00000000e+000
   0.00000000e+000   0.00000000e+000   0.00000000e+000   0.00000000e+000
   0.00000000e+000   0.00000000e+000   0.00000000e+000   0.00000000e+000
   0.00000000e+000   0.00000000e+000   0.00000000e+000   0.00000000e+000
   0.00000000e+000   0.00000000e+000   0.00000000e+000   0.00000000e+000
   0.00000000e+000   0.00000000e+000   0.00000000e+000   0.00000000e+000
   0.00000000e+000   0.00000000e+000   0.00000000e+000   0.00000000e+000
   0.00000000e+000   0.00000000e+000   0.00000000e+000   0.00000000e+000
   0.00000000e+000   0.00000000e+000   0.00000000e+000   0.00000000e+000
   0.00000000e+000   0.00000000e+000   0.00000000e+000   0.00000000e+000
   0.00000000e+000   0.00000000e+000   0.00000000e+000   0.00000000e+000
   0.00000000e+000   0.00000000e+000   0.00000000e+000   0.00000000e+000
   0.00000000e+000   0.00000000e+000   0.00000000e+000   0.00000000e+000
   0.00000000e+000   0.00000000e+000   0.00000000e+000   0.00000000e+000
   0.00000000e+000   0.00000000e+000   0.00000000e+000   0.00000000e+000
   0.00000000e+000   0.00000000e+000   0.00000000e+000   0.00000000e+000
   0.00000000e+000   0.00000000e+000   0.00000000e+000   0.00000000e+000
   0.00000000e+000   0.00000000e+000   0.00000000e+000   0.00000000e+000
   0.00000000e+000   0.00000000e+000   0.00000000e+000   0.00000000e+000
   0.00000000e+000   0.00000000e+000   0.00000000e+000   0.00000000e+000
   0.00000000e+000   0.00000000e+000   0.00000000e+000   0.00000000e+000
   0.00000000e+000   0.00000000e+000   0.00000000e+000   0.00000000e+000
   0.00000000e+000   0.00000000e+000   0.00000000e+000   0.00000000e+000
   0.00000000e+000   0.00000000e+000   0.00000000e+000   0.00000000e+000
   0.00000000e+000   0.00000000e+000   0.00000000e+000   0.00000000e+000
   0.00000000e+000   0.00000000e+000   0.00000000e+000   0.00000000e+000
   0.00000000e+000   0.00000000e+000   0.00000000e+000   0.00000000e+000
   0.00000000e+000   0.00000000e+000   0.00000000e+000   0.00000000e+000
   0.00000000e+000   0.00000000e+000   0.00000000e+000   0.00000000e+000
   0.00000000e+000   0.00000000e+000   0.00000000e+000   0.00000000e+000
   0.00000000e+000   0.00000000e+000   0.00000000e+000   0.00000000e+000
   0.00000000e+000   0.00000000e+000   0.00000000e+000   0.00000000e+000
   0.00000000e+000   0.00000000e+000   0.00000000e+000   0.00000000e+000
   0.00000000e+000   0.00000000e+000   0.00000000e+000   0.00000000e+000
   0.00000000e+000   0.00000000e+000   0.00000000e+000   0.00000000e+000
   0.00000000e+000   0.00000000e+000   0.00000000e+000   0.00000000e+000
   0.00000000e+000   0.00000000e+000   0.00000000e+000   0.00000000e+000
   0.00000000e+000   0.00000000e+000   0.00000000e+000   0.00000000e+000
   0.00000000e+000   0.00000000e+000   0.00000000e+000   0.00000000e+000
   0.00000000e+000   0.00000000e+000   0.00000000e+000   0.00000000e+000
   0.00000000e+000   0.00000000e+000   0.00000000e+000   0.00000000e+000
   0.00000000e+000   0.00000000e+000   0.00000000e+000   0.00000000e+000
   0.00000000e+000   0.00000000e+000   0.00000000e+000   0.00000000e+000
   0.00000000e+000   0.00000000e+000   0.00000000e+000   0.00000000e+000
   0.00000000e+000   0.00000000e+000   0.00000000e+000   0.00000000e+000
   0.00000000e+000   0.00000000e+000   0.00000000e+000   0.00000000e+000
   0.00000000e+000   0.00000000e+000   0.00000000e+000   0.00000000e+000
   0.00000000e+000   0.00000000e+000   0.00000000e+000   0.00000000e+000
   0.00000000e+000   0.00000000e+000   0.00000000e+000   0.00000000e+000
   0.00000000e+000   0.00000000e+000   0.00000000e+000   0.00000000e+000
   0.00000000e+000   0.00000000e+000   0.00000000e+000   0.00000000e+000
   0.00000000e+000   0.00000000e+000   0.00000000e+000   0.00000000e+000
   0.00000000e+000   0.00000000e+000   0.00000000e+000   0.00000000e+000
   0.00000000e+000   0.00000000e+000   0.00000000e+000   0.00000000e+000
   0.00000000e+000   0.00000000e+000   0.00000000e+000   0.00000000e+000
   0.00000000e+000   0.00000000e+000   0.00000000e+000   0.00000000e+000
   0.00000000e+000   0.00000000e+000   0.00000000e+000   0.00000000e+000
   0.00000000e+000   0.00000000e+000   0.00000000e+000   0.00000000e+000
   0.00000000e+000   0.00000000e+000   0.00000000e+000   0.00000000e+000
   0.00000000e+000   0.00000000e+000   0.00000000e+000   0.00000000e+000
   0.00000000e+000   0.00000000e+000   0.00000000e+000   0.00000000e+000
   0.00000000e+000   0.00000000e+000   0.00000000e+000   0.00000000e+000
   0.00000000e+000   0.00000000e+000   0.00000000e+000   0.00000000e+000
   0.00000000e+000   0.00000000e+000   0.00000000e+000   0.00000000e+000
   0.00000000e+000   0.00000000e+000   0.00000000e+000   0.00000000e+000
   0.00000000e+000   0.00000000e+000   0.00000000e+000   0.00000000e+000
   0.00000000e+000   0.00000000e+000   0.00000000e+000   0.00000000e+000
   0.00000000e+000   0.00000000e+000   0.00000000e+000   0.00000000e+000
   0.00000000e+000   0.00000000e+000   0.00000000e+000   0.00000000e+000
   0.00000000e+000   0.00000000e+000   0.00000000e+000   0.00000000e+000
   0.00000000e+000   0.00000000e+000   0.00000000e+000   0.00000000e+000
   0.00000000e+000   0.00000000e+000   0.00000000e+000   0.00000000e+000
   0.00000000e+000   0.00000000e+000   0.00000000e+000   0.00000000e+000
   0.00000000e+000   0.00000000e+000   0.00000000e+000   0.00000000e+000
   0.00000000e+000   0.00000000e+000   0.00000000e+000   0.00000000e+000
   0.00000000e+000   0.00000000e+000   0.00000000e+000   0.00000000e+000
   0.00000000e+000   0.00000000e+000   0.00000000e+000   0.00000000e+000
   0.00000000e+000   0.00000000e+000   0.00000000e+000   0.00000000e+000
   0.00000000e+000   0.00000000e+000   0.00000000e+000   0.00000000e+000
   0.00000000e+000   0.00000000e+000   0.00000000e+000   0.00000000e+000
   0.00000000e+000   0.00000000e+000   0.00000000e+000   0.00000000e+000
   0.00000000e+000   0.00000000e+000   0.00000000e+000   0.00000000e+000
   0.00000000e+000   0.00000000e+000   0.00000000e+000   0.00000000e+000
   0.00000000e+000   0.00000000e+000   0.00000000e+000   0.00000000e+000
   0.00000000e+000   0.00000000e+000   0.00000000e+000   0.00000000e+000
   0.00000000e+000   0.00000000e+000   0.00000000e+000   0.00000000e+000
   0.00000000e+000   0.00000000e+000   0.00000000e+000   0.00000000e+000
   0.00000000e+000   0.00000000e+000   0.00000000e+000   0.00000000e+000
   0.00000000e+000   0.00000000e+000   0.00000000e+000   0.00000000e+000
   0.00000000e+000   0.00000000e+000   0.00000000e+000   0.00000000e+000
   0.00000000e+000   0.00000000e+000   0.00000000e+000   0.00000000e+000
   0.00000000e+000   0.00000000e+000   0.00000000e+000   0.00000000e+000
   0.00000000e+000   0.00000000e+000   0.00000000e+000   0.00000000e+000
   0.00000000e+000   0.00000000e+000   0.00000000e+000   0.00000000e+000
   0.00000000e+000   0.00000000e+000   0.00000000e+000   0.00000000e+000
   0.00000000e+000   0.00000000e+000   0.00000000e+000   0.00000000e+000
   0.00000000e+000   0.00000000e+000   0.00000000e+000   0.00000000e+000]
p_data= 0.995926376893
